GLM Workshop – Binomial GLM example
…
Then we can load some packages:

library(lme4)      # for mixed-models
library(tidyverse) # for data manipulation
library(ggplot2)   # plotting

Exploring

For the purpose if this workshop, we will focus on a single subject (otherwise we should use a mixed-effects model). We also select only the relevant columns.

dat <- subset(dat, id == 22)
dat <- dat[, c("id", "age", "intensity", "emotion_lbl", "response_lbl", "acc")]
dat

# A tibble: 377 × 6
      id age   intensity emotion_lbl response_lbl   acc
   <int> <chr>     <dbl> <chr>       <chr>        <int>
 1    22 53           60 fear        suprise          0
 2    22 53           60 disgust     disgust          1
 3    22 53           70 happiness   happiness        1
 4    22 53          100 happiness   happiness        1
 5    22 53           60 disgust     sadness          0
 6    22 53           20 fear        neutral          0
 7    22 53           10 fear        neutral          0
 8    22 53          100 sadness     sadness          1
 9    22 53           90 disgust     disgust          1
10    22 53           40 happiness   happiness        1
# ℹ 367 more rows
…
